{
    "key": "group_5e2ade7ea1d93",
    "title": "Mod-cta",
    "fields": [
        {
            "key": "field_5e2ade8f38155",
            "label": "Choisissez le type de lien",
            "name": "link_type",
            "type": "select",
            "instructions": "",
            "required": 0,
            "conditional_logic": 0,
            "wrapper": {
                "width": "",
                "class": "",
                "id": ""
            },
            "choices": {
                "Lien interne": "Lien interne",
                "Lien externe": "Lien externe",
                "Bouton d'appel à l'action": "Bouton d'appel à l'action"
            },
            "default_value": [],
            "allow_null": 0,
            "multiple": 0,
            "ui": 0,
            "return_format": "value",
            "ajax": 0,
            "placeholder": ""
        },
        {
            "key": "field_5e2adec038156",
            "label": "Lien",
            "name": "link",
            "type": "link",
            "instructions": "",
            "required": 0,
            "conditional_logic": 0,
            "wrapper": {
                "width": "",
                "class": "",
                "id": ""
            },
            "return_format": "array"
        }
    ],
    "location": [
        [
            {
                "param": "block",
                "operator": "==",
                "value": "acf\/mod-cta"
            }
        ]
    ],
    "menu_order": 0,
    "position": "normal",
    "style": "default",
    "label_placement": "top",
    "instruction_placement": "label",
    "hide_on_screen": "",
    "active": 1,
    "description": "",
    "is_acf_component": 0,
    "acf_component_defaults": {
        "repeatable": "0",
        "min": "",
        "max": "",
        "layout": "block",
        "button_label": "",
        "appearances": ""
    },
    "modified": 1579871777
}